// Jest Snapshot v1, https://goo.gl/fbAQLP

exports[`Storyshots ActionButtons As A Component 1`] = `
<div
  class="dropdown b-dropdown btn-group position-static"
>
  <!---->
  <button
    aria-expanded="false"
    aria-haspopup="true"
    class="btn dropdown-toggle btn-secondary action-btn p-0 dropdown-toggle-no-caret"
    type="button"
  >
    <a>
      <i
        class="i-more-1"
      />
    </a>
  </button>
  <ul
    class="dropdown-menu action-menu"
    role="menu"
    tabindex="-1"
  >
     
    <li>
      <a
        class="dropdown-item"
        href="#"
      >
        
    View
  
      </a>
    </li>
     
    <li>
      <a
        class="dropdown-item"
        href="#"
      >
        
    Edit
  
      </a>
    </li>
     
    <li>
      <a
        class="dropdown-item"
        href="#"
      >
        
    Deactivate
  
      </a>
    </li>
  </ul>
</div>
`;

exports[`Storyshots Breadcrumb As A Component 1`] = `
<div>
  <nav
    aria-label="You are here:"
    role="navigation"
  >
    <ul
      class="breadcrumbs"
    >
      <li>
        <a>
          Employees
        </a>
      </li>
      <li>
        <a>
          View & Manage
        </a>
      </li>
    </ul>
  </nav>
   
  <h3
    class="page-title"
  >
    <!---->
     
    <span>
      Add New Employee
    </span>
  </h3>
</div>
`;

exports[`Storyshots Breadcrumb As A Secondary P Age 1`] = `
<div>
  <nav
    aria-label="You are here:"
    role="navigation"
  >
    <ul
      class="breadcrumbs"
    >
      <li>
        <a>
          Employees
        </a>
      </li>
      <li>
        <a>
          View & Manage
        </a>
      </li>
    </ul>
  </nav>
   
  <h3
    class="page-title"
  >
    <a
      href="/employees"
    >
      <i
        class="i-chevron-left"
        style="color: rgb(202, 202, 202); font-size: 0.7em;"
      />
    </a>
     
    <span>
      Add New Employee
    </span>
  </h3>
</div>
`;

exports[`Storyshots BreadcrumbMenu As A Component 1`] = `
<ul
  class="breadcrumbs"
>
  <li>
    <a>
      Employees
    </a>
  </li>
  <li>
    <a>
      View & Manage
    </a>
  </li>
</ul>
`;

exports[`Storyshots EmployeeNavbar As A Component 1`] = `
<div>
  <nav
    class="navbar searchbar-container navbar-light navbar-expand-lg"
  >
    <div
      class="row spacing"
    >
      <div
        class="col-sm-12 col-md-10 col-10"
      >
        <div
          class="cont-menu-tablet"
        >
          <a
            aria-label="Open Navigation Bar"
            class="btn-menu-tablet button"
            onclick="{this.onOpenNavigationBar}"
          >
            <i
              class="icon i-menu-1"
            />
          </a>
        </div>
         
        <input
          class="searchbar form-control"
          placeholder="Search in the app"
          type="text"
        />
         
        <button
          class="btn search-button btn-success"
          hidden="hidden"
          type="submit"
        >
          <span>
            Go!
          </span>
        </button>
      </div>
       
      <div
        class="col-sm-12 col-md-2 col-2"
      />
    </div>
  </nav>
   
  <nav
    class="navbar navbar-container sticky-top navbar-light navbar-expand-lg"
  >
    <div
      class="row spacing"
    >
      <div
        class="col-sm-12 col-md-6 col-6"
      >
        <div>
          <nav
            aria-label="You are here:"
            role="navigation"
          >
            <ul
              class="breadcrumbs"
            >
              <li>
                <a>
                  Employees
                </a>
              </li>
              <li>
                <a>
                  View & Manage
                </a>
              </li>
            </ul>
          </nav>
           
          <h3
            class="page-title"
          >
            <!---->
             
            <span>
              View & Manage Employees
            </span>
          </h3>
        </div>
      </div>
       
      <div
        class="col-sm-12 col-md-6 col-6"
      >
        <div
          class="button-group btn-group"
          role="group"
        />
      </div>
    </div>
  </nav>
</div>
`;

exports[`Storyshots FilterBar As A Component 1`] = `
<div>
  <input
    class="search form-control"
    placeholder="Filter by Display Name..."
    type="text"
  />
</div>
`;

exports[`Storyshots Input As A Component 1`] = `
<fieldset
  class="form-group label-s"
  id="undefined-group"
  label="Some Label"
>
  <legend
    class="bv-no-focus-ring col-form-label pt-0"
    id="undefined-group__BV_label_"
    tabindex="-1"
  >
    Some Label
  </legend>
  <div
    class="bv-no-focus-ring"
    role="group"
    tabindex="-1"
  >
    <input
      aria-describedby="undefined-feedback"
      class="form-control"
      disabled="disabled"
      label="Some Label"
      style="font-size: 0.9rem; font-weight: 500;"
      type="text"
    />
     
    <div
      class="invalid-feedback"
      id="undefined-feedback"
    >
      
  
    </div>
    <!---->
    <!---->
    <!---->
  </div>
</fieldset>
`;

exports[`Storyshots Navbar As A Component 1`] = `
<div>
  <nav
    class="navbar searchbar-container navbar-light navbar-expand-lg"
  >
    <div
      class="row spacing"
    >
      <div
        class="col-sm-12 col-md-10 col-10"
      >
        <div
          class="cont-menu-tablet"
        >
          <a
            aria-label="Open Navigation Bar"
            class="btn-menu-tablet button"
            onclick="{this.onOpenNavigationBar}"
          >
            <i
              class="icon i-menu-1"
            />
          </a>
        </div>
         
        <input
          class="searchbar form-control"
          placeholder="Search in the app"
          type="text"
        />
         
        <button
          class="btn search-button btn-success"
          hidden="hidden"
          type="submit"
        >
          <span>
            Go!
          </span>
        </button>
      </div>
       
      <div
        class="col-sm-12 col-md-2 col-2"
      />
    </div>
  </nav>
   
  <nav
    class="navbar navbar-container sticky-top navbar-light navbar-expand-lg"
  >
    <div
      class="row spacing"
    >
      <div
        class="col-sm-12 col-md-6 col-6"
      >
        <div>
          <nav
            aria-label="You are here:"
            role="navigation"
          >
            <ul
              class="breadcrumbs"
            >
              <li>
                <a>
                  Employees
                </a>
              </li>
              <li>
                <a>
                  View & Manage
                </a>
              </li>
            </ul>
          </nav>
           
          <h3
            class="page-title"
          >
            <!---->
             
            <span>
              View & Manage Employees
            </span>
          </h3>
        </div>
      </div>
       
      <div
        class="col-sm-12 col-md-6 col-6"
      >
        <div
          class="button-group btn-group"
          role="group"
        />
      </div>
    </div>
  </nav>
</div>
`;

exports[`Storyshots Options As A Component 1`] = `
<ul
  class="accordion-menu"
>
  <li
    class="accordion-items is-active"
  >
    <a
      class="accordion-title"
    >
      <i />
       
      <span>
        Employees
      </span>
    </a>
     
    <ul
      class="accordion-menu"
    >
      <li
        class="nested"
      >
        <a
          href="/employees"
        >
          <i />
           
          <span>
            View & Manage
          </span>
        </a>
      </li>
    </ul>
    <ul
      class="accordion-menu"
    >
      <li
        class="nested"
      >
        <a
          href="/employees/create"
        >
          <i />
           
          <span>
            Add New
          </span>
        </a>
      </li>
    </ul>
  </li>
  <li
    class="logout"
  >
    <a
      class="accordion-title"
      href="#"
    >
      <i />
       
      <span>
        Logout
      </span>
    </a>
     
  </li>
</ul>
`;

exports[`Storyshots Searchbar As A Component 1`] = `
<nav
  class="navbar searchbar-container navbar-light navbar-expand-lg"
>
  <div
    class="row spacing"
  >
    <div
      class="col-sm-12 col-md-10 col-10"
    >
      <div
        class="cont-menu-tablet"
      >
        <a
          aria-label="Open Navigation Bar"
          class="btn-menu-tablet button"
          onclick="{this.onOpenNavigationBar}"
        >
          <i
            class="icon i-menu-1"
          />
        </a>
      </div>
       
      <input
        class="searchbar form-control"
        placeholder="Search in the app"
        type="text"
      />
       
      <button
        class="btn search-button btn-success"
        hidden="hidden"
        type="submit"
      >
        <span>
          Go!
        </span>
      </button>
    </div>
     
    <div
      class="col-sm-12 col-md-2 col-2"
    />
  </div>
</nav>
`;

exports[`Storyshots Sidebar As A Component 1`] = `
<div
  aria-hidden="true"
  aria-modal="false"
  class="b-sidebar shadow bg-light text-dark"
  id="sidebar-1"
  role="dialog"
  style="width: 240px; z-index: 0;"
  tabindex="-1"
>
  <header
    class="b-sidebar-header"
  >
    <span />
    <!---->
  </header>
  <div
    class="b-sidebar-body"
  >
    <div>
      <h1
        class="logo-img"
      >
        <a
          aria-label="Home page"
          href="#"
        />
      </h1>
    </div>
     
    <div
      class="py-2"
    >
      <ul
        class="accordion-menu"
      >
        <li
          class="accordion-items is-active"
        >
          <a
            class="accordion-title"
            href="/employees"
          >
            <i
              class="i i-user-2"
            />
             
            <span>
              Employees
            </span>
          </a>
           
          <ul
            class="accordion-menu"
          >
            <li
              class="nested"
            >
              <a
                href="/employees"
              >
                <i
                  class="i i-list-1"
                />
                 
                <span>
                  View & Manage
                </span>
              </a>
            </li>
          </ul>
          <ul
            class="accordion-menu"
          >
            <li
              class="nested"
            >
              <a
                href="/employees/create"
              >
                <i
                  class="i i-plus"
                />
                 
                <span>
                  Add New
                </span>
              </a>
            </li>
          </ul>
        </li>
        <li
          class="logout"
        >
          <a
            class="accordion-title"
            href="#"
          >
            <i
              class="i i-logout"
            />
             
            <span>
              Logout
            </span>
          </a>
           
        </li>
      </ul>
    </div>
  </div>
  <!---->
</div>
`;

exports[`Storyshots Table As A Component 1`] = `
<div
  class="table"
>
  <div
    class="mb-0 table-responsive"
  >
    <table
      aria-busy="false"
      aria-colcount="8"
      class="table b-table table-hover table-bordered table-borderless"
      role="table"
    >
      <!---->
      <!---->
      <thead
        class=""
        role="rowgroup"
      >
        <!---->
        <tr
          class=""
          role="row"
        >
          <th
            aria-colindex="1"
            aria-label="Avatar"
            class=""
            role="columnheader"
            scope="col"
          />
          <th
            aria-colindex="2"
            class=""
            role="columnheader"
            scope="col"
          >
            Display Name
          </th>
          <th
            aria-colindex="3"
            class=""
            role="columnheader"
            scope="col"
          >
            Last Name
          </th>
          <th
            aria-colindex="4"
            class=""
            role="columnheader"
            scope="col"
          >
            Email
          </th>
          <th
            aria-colindex="5"
            class=""
            role="columnheader"
            scope="col"
          >
            Tags
          </th>
          <th
            aria-colindex="6"
            class=""
            role="columnheader"
            scope="col"
          >
            Birthdate
          </th>
          <th
            aria-colindex="7"
            class=""
            role="columnheader"
            scope="col"
          >
            Start Date
          </th>
          <th
            aria-colindex="8"
            class=""
            role="columnheader"
            scope="col"
          >
            Actions
          </th>
        </tr>
      </thead>
      <tbody
        role="rowgroup"
      >
        <!---->
        <tr
          class=""
          role="row"
        >
          <td
            aria-colindex="1"
            class=""
            role="cell"
          >
            <img
              alt="Avatar"
              class="avatar"
              src="//www.gravatar.com/avatar/6a6c19fea4a3676970167ce51f39e6ee?s=80&d=retro&r=g"
            />
          </td>
          <td
            aria-colindex="2"
            class=""
            role="cell"
          >
            John
          </td>
          <td
            aria-colindex="3"
            class=""
            role="cell"
          >
            Doe
          </td>
          <td
            aria-colindex="4"
            class=""
            role="cell"
          >
            john@doe.com
          </td>
          <td
            aria-colindex="5"
            class=""
            role="cell"
          >
            
      
    
          </td>
          <td
            aria-colindex="6"
            class=""
            role="cell"
          >
            
      05/21/1998
    
          </td>
          <td
            aria-colindex="7"
            class=""
            role="cell"
          >
            
      01/01/2019
    
          </td>
          <td
            aria-colindex="8"
            class=""
            role="cell"
          >
            <div
              class="dropdown b-dropdown btn-group position-static"
            >
              <!---->
              <button
                aria-expanded="false"
                aria-haspopup="true"
                class="btn dropdown-toggle btn-secondary action-btn p-0 dropdown-toggle-no-caret"
                type="button"
              >
                <a>
                  <i
                    class="i-more-1"
                  />
                </a>
              </button>
              <ul
                class="dropdown-menu action-menu"
                role="menu"
                tabindex="-1"
              >
                 
                <li>
                  <a
                    class="dropdown-item"
                    href="#"
                  >
                    
    View
  
                  </a>
                </li>
                 
                <li>
                  <a
                    class="dropdown-item"
                    href="#"
                  >
                    
    Edit
  
                  </a>
                </li>
                 
                <li>
                  <a
                    class="dropdown-item"
                    href="#"
                  >
                    
    Deactivate
  
                  </a>
                </li>
              </ul>
            </div>
          </td>
        </tr>
        <tr
          class=""
          role="row"
        >
          <td
            aria-colindex="1"
            class=""
            role="cell"
          >
            <img
              alt="Avatar"
              class="avatar"
              src="//www.gravatar.com/avatar/35f5782642e9fa0f6cfff5a552e2ae97?s=80&d=retro&r=g"
            />
          </td>
          <td
            aria-colindex="2"
            class=""
            role="cell"
          >
            Jane
          </td>
          <td
            aria-colindex="3"
            class=""
            role="cell"
          >
            Doe
          </td>
          <td
            aria-colindex="4"
            class=""
            role="cell"
          >
            jane@doe.com
          </td>
          <td
            aria-colindex="5"
            class=""
            role="cell"
          >
            
      
    
          </td>
          <td
            aria-colindex="6"
            class=""
            role="cell"
          >
            
      02/21/1997
    
          </td>
          <td
            aria-colindex="7"
            class=""
            role="cell"
          >
            
      01/01/2020
    
          </td>
          <td
            aria-colindex="8"
            class=""
            role="cell"
          >
            <div
              class="dropdown b-dropdown btn-group position-static"
            >
              <!---->
              <button
                aria-expanded="false"
                aria-haspopup="true"
                class="btn dropdown-toggle btn-secondary action-btn p-0 dropdown-toggle-no-caret"
                type="button"
              >
                <a>
                  <i
                    class="i-more-1"
                  />
                </a>
              </button>
              <ul
                class="dropdown-menu action-menu"
                role="menu"
                tabindex="-1"
              >
                 
                <li>
                  <a
                    class="dropdown-item"
                    href="#"
                  >
                    
    View
  
                  </a>
                </li>
                 
                <li>
                  <a
                    class="dropdown-item"
                    href="#"
                  >
                    
    Edit
  
                  </a>
                </li>
                 
                <li>
                  <a
                    class="dropdown-item"
                    href="#"
                  >
                    
    Deactivate
  
                  </a>
                </li>
              </ul>
            </div>
          </td>
        </tr>
        <!---->
        <!---->
      </tbody>
      <!---->
    </table>
  </div>
   
  <ul
    aria-disabled="false"
    aria-label="Pagination"
    class="pagination mb-0 b-pagination text-center"
    role="menubar"
  >
    <li
      aria-hidden="true"
      class="page-item disabled flex-fill"
      role="presentation"
    >
      <span
        aria-controls="table"
        aria-disabled="true"
        aria-label="Go to first page"
        class="page-link"
        role="menuitem"
      >
        First
      </span>
    </li>
    <li
      aria-hidden="true"
      class="page-item disabled flex-fill"
      role="presentation"
    >
      <span
        aria-controls="table"
        aria-disabled="true"
        aria-label="Go to previous page"
        class="page-link"
        role="menuitem"
      >
        Prev
      </span>
    </li>
    <!---->
    <!---->
    <li
      class="page-item flex-fill d-flex"
      role="presentation"
    >
      <button
        aria-checked="false"
        aria-controls="table"
        aria-label="Go to page 1"
        aria-posinset="1"
        aria-setsize="1"
        class="page-link flex-grow-1"
        role="menuitemradio"
        tabindex="0"
        type="button"
      >
        1
      </button>
    </li>
    <!---->
    <!---->
    <li
      aria-hidden="true"
      class="page-item disabled flex-fill"
      role="presentation"
    >
      <span
        aria-controls="table"
        aria-disabled="true"
        aria-label="Go to next page"
        class="page-link"
        role="menuitem"
      >
        Next
      </span>
    </li>
    <li
      aria-hidden="true"
      class="page-item disabled flex-fill"
      role="presentation"
    >
      <span
        aria-controls="table"
        aria-disabled="true"
        aria-label="Go to last page"
        class="page-link"
        role="menuitem"
      >
        Last
      </span>
    </li>
  </ul>
</div>
`;

exports[`Storyshots TableHeader As A Component 1`] = `
<div
  class="header"
>
  <div
    class="container"
  >
    <div
      class="row"
    >
      <div
        class="tabs"
      >
        <div
          class="tabs"
        >
          <!---->
          <div
            class=""
          >
            <ul
              class="nav nav-tabs"
              role="tablist"
            >
              <!---->
              <!---->
            </ul>
          </div>
          <div
            class="tab-content"
          >
            <div
              aria-hidden="true"
              class="tab-pane"
              role="tabpanel"
              style="display: none;"
              vertical=""
            />
             
            <div
              aria-hidden="true"
              class="tab-pane"
              role="tabpanel"
              style="display: none;"
            />
            <div
              class="tab-pane active"
            />
          </div>
        </div>
      </div>
       
      <div
        value=""
      >
        <input
          class="search form-control"
          placeholder="Filter by Display Name..."
          type="text"
        />
      </div>
    </div>
  </div>
</div>
`;

exports[`Storyshots Tabs As A Component 1`] = `
<div
  class="tabs"
>
  <div
    class="tabs"
  >
    <!---->
    <div
      class=""
    >
      <ul
        class="nav nav-tabs"
        role="tablist"
      >
        <!---->
        <!---->
      </ul>
    </div>
    <div
      class="tab-content"
    >
      <div
        aria-hidden="true"
        class="tab-pane"
        role="tabpanel"
        style="display: none;"
        vertical=""
      />
       
      <div
        aria-hidden="true"
        class="tab-pane"
        role="tabpanel"
        style="display: none;"
      />
      <div
        class="tab-pane active"
      />
    </div>
  </div>
</div>
`;
